HW_R
…
name = c("ID", "RI", "Na", "Mg", "Al", "Si", "K", "Ca", "Ba", "Fe", "Type_of_glass")
glass = read_csv("https://www4.stat.ncsu.edu/~online/datasets/glass.data", col_names = name)

Rows: 214 Columns: 11
── Column specification ────────────────────────────────────────────────────────
Delimiter: ","
dbl (11): ID, RI, Na, Mg, Al, Si, K, Ca, Ba, Fe, Type_of_glass

ℹ Use `spec()` to retrieve the full column specification for this data.
ℹ Specify the column types or set `show_col_types = FALSE` to quiet this message.

glass

# A tibble: 214 × 11
      ID    RI    Na    Mg    Al    Si     K    Ca    Ba    Fe Type_of_glass
   <dbl> <dbl> <dbl> <dbl> <dbl> <dbl> <dbl> <dbl> <dbl> <dbl>         <dbl>
 1     1  1.52  13.6  4.49  1.1   71.8  0.06  8.75     0  0                1
 2     2  1.52  13.9  3.6   1.36  72.7  0.48  7.83     0  0                1
 3     3  1.52  13.5  3.55  1.54  73.0  0.39  7.78     0  0                1
 4     4  1.52  13.2  3.69  1.29  72.6  0.57  8.22     0  0                1
 5     5  1.52  13.3  3.62  1.24  73.1  0.55  8.07     0  0                1
 6     6  1.52  12.8  3.61  1.62  73.0  0.64  8.07     0  0.26             1
 7     7  1.52  13.3  3.6   1.14  73.1  0.58  8.17     0  0                1
 8     8  1.52  13.2  3.61  1.05  73.2  0.57  8.24     0  0                1
 9     9  1.52  14.0  3.58  1.37  72.1  0.56  8.3      0  0                1
10    10  1.52  13    3.6   1.36  73.0  0.57  8.4      0  0.11             1
# ℹ 204 more rows
…
glass = glass %>%
  mutate(Type_of_glass = factor(Type_of_glass,
                                levels = 1:7,
                                labels = c("building_windows_float_processed",
                                           "building_windows_non_float_processed",
                                           "vehicle_windows_float_processed",
                                           "vehicle_windows_non_float_processed",
                                           "containers",
                                           "tableware",
                                           "headlamps"))) %>%
  filter(Fe < 0.2 & Type_of_glass == "tableware" | Type_of_glass == "headlamps")

glass

# A tibble: 38 × 11
      ID    RI    Na    Mg    Al    Si     K    Ca    Ba    Fe Type_of_glass
   <dbl> <dbl> <dbl> <dbl> <dbl> <dbl> <dbl> <dbl> <dbl> <dbl> <fct>        
 1   177  1.52  14    2.39  1.56  72.4  0     9.57  0        0 tableware    
 2   178  1.52  13.8  2.41  1.19  72.8  0     9.77  0        0 tableware    
 3   179  1.52  14.5  2.24  1.62  72.4  0     9.26  0        0 tableware    
 4   180  1.52  14.1  2.19  1.66  72.7  0     9.32  0        0 tableware    
 5   181  1.51  14.4  1.74  1.54  74.6  0     7.59  0        0 tableware    
 6   182  1.52  15.0  0.78  1.74  72.5  0     9.95  0        0 tableware    
 7   183  1.52  14.2  0     2.09  72.7  0    10.9   0        0 tableware    
 8   184  1.52  14.6  0     0.56  73.5  0    11.2   0        0 tableware    
 9   185  1.51  17.4  0     0.34  75.4  0     6.65  0        0 tableware    
10   186  1.51  13.7  3.2   1.81  72.8  1.76  5.43  1.19     0 headlamps    
# ℹ 28 more rows
…
Task 2: Combining Excel and Delimited Data

Reading in white wine excel data,

white_wine = read_excel("white-wine.xlsx", sheet = 1)

white_wine

# A tibble: 4,898 × 12
   `fixed acidity` `volatile acidity` `citric acid` `residual sugar` chlorides
             <dbl>              <dbl>         <dbl>            <dbl>     <dbl>
 1               7               0.27          0.36             20.7     0.045
 2              63               0.3           0.34              1.6     0.049
 3              81               0.28          0.4               6.9     0.05 
 4              72               0.23          0.32              8.5     0.058
 5              72               0.23          0.32              8.5     0.058
 6              81               0.28          0.4               6.9     0.05 
 7              62               0.32          0.16              7       0.045
 8               7               0.27          0.36             20.7     0.045
 9              63               0.3           0.34              1.6     0.049
10              81               0.22          0.43              1.5     0.044
# ℹ 4,888 more rows
# ℹ 7 more variables: `free sulfur dioxide` <dbl>,
#   `total sulfur dioxide` <dbl>, density <dbl>, pH <dbl>, sulphates <dbl>,
#   alcohol <dbl>, quality <dbl>

wine_name = read_excel("white-wine.xlsx", sheet = 2)
wine_name = t(wine_name)

colnames(white_wine) = wine_name

white_wine$type = "white"

white_wine

# A tibble: 4,898 × 13
   fixed_acidity volatile_acidity citric_acid residual_sugar chlorides
           <dbl>            <dbl>       <dbl>          <dbl>     <dbl>
 1             7             0.27        0.36           20.7     0.045
 2            63             0.3         0.34            1.6     0.049
 3            81             0.28        0.4             6.9     0.05 
 4            72             0.23        0.32            8.5     0.058
 5            72             0.23        0.32            8.5     0.058
 6            81             0.28        0.4             6.9     0.05 
 7            62             0.32        0.16            7       0.045
 8             7             0.27        0.36           20.7     0.045
 9            63             0.3         0.34            1.6     0.049
10            81             0.22        0.43            1.5     0.044
# ℹ 4,888 more rows
# ℹ 8 more variables: free_sulfur_dioxide <dbl>, total_sulfur_dioxide <dbl>,
#   density <dbl>, pH <dbl>, sulphates <dbl>, alcohol <dbl>, quality <dbl>,
#   type <chr>
…
colnames(red_wine) = wine_name
red_wine$type = "red"

red_wine = mutate(red_wine,
                  volatile_acidity = as.numeric(volatile_acidity),
                  citric_acid = as.numeric(citric_acid),
                  chlorides = as.numeric(chlorides),
                  density = as.numeric(density),
                  sulphates = as.numeric(sulphates))

red_wine

# A tibble: 1,599 × 13
   fixed_acidity volatile_acidity citric_acid residual_sugar chlorides
           <dbl>            <dbl>       <dbl>          <dbl>     <dbl>
 1            74             0.7         0                19     0.076
 2            78             0.88        0                26     0.098
 3            78             0.76        0.04             23     0.092
 4           112             0.28        0.56             19     0.075
 5            74             0.7         0                19     0.076
 6            74             0.66        0                18     0.075
 7            79             0.6         0.06             16     0.069
 8            73             0.65        0                12     0.065
 9            78             0.58        0.02              2     0.073
10            75             0.5         0.36             61     0.071
# ℹ 1,589 more rows
# ℹ 8 more variables: free_sulfur_dioxide <dbl>, total_sulfur_dioxide <dbl>,
#   density <dbl>, pH <dbl>, sulphates <dbl>, alcohol <dbl>, quality <dbl>,
#   type <chr>

Combining the datasets

wines = dplyr::bind_rows(white_wine, red_wine)

wines = wines %>%
  filter(quality > 6.5 & alcohol < 132) %>%
  arrange(desc(quality)) %>%
  select(contains("acid"), alcohol, type, quality) %>%
  mutate(mean_alcohol = ave(alcohol, quality, FUN = mean),
         sd_alcohol = ave(alcohol, quality, FUN = sd))
  
wines

# A tibble: 1,198 × 8
   fixed_acidity volatile_acidity citric_acid alcohol type  quality mean_alcohol
           <dbl>            <dbl>       <dbl>   <dbl> <chr>   <dbl>        <dbl>
 1            91             0.27        0.45     104 white       9         122.
 2            66             0.36        0.29     124 white       9         122.
 3            74             0.24        0.36     125 white       9         122.
 4            69             0.36        0.34     127 white       9         122.
 5            71             0.26        0.49     129 white       9         122.
 6            62             0.66        0.48     128 white       8         102.
 7            62             0.66        0.48     128 white       8         102.
 8            68             0.26        0.42     105 white       8         102.
 9            67             0.23        0.31     107 white       8         102.
10            67             0.23        0.31     107 white       8         102.
# ℹ 1,188 more rows
# ℹ 1 more variable: sd_alcohol <dbl>
…
HOF_names = left_join(HOF, tbl(con, "People"), by = join_by(playerID == playerID)) %>%
  collect() %>%
  select(playerID, yearID, category,nameFirst, nameLast)

HOF_names

# A tibble: 340 × 5
   playerID  yearID category          nameFirst nameLast 
   <chr>      <int> <chr>             <chr>     <chr>    
 1 cobbty01    1936 Player            Ty        Cobb     
 2 ruthba01    1936 Player            Babe      Ruth     
 3 wagneho01   1936 Player            Honus     Wagner   
 4 mathech01   1936 Player            Christy   Mathewson
 5 johnswa01   1936 Player            Walter    Johnson  
 6 lajoina01   1937 Player            Nap       Lajoie   
 7 speaktr01   1937 Player            Tris      Speaker  
 8 youngcy01   1937 Player            Cy        Young    
 9 bulkemo99   1937 Pioneer/Executive Morgan    Bulkeley 
10 johnsba99   1937 Pioneer/Executive Ban       Johnson  
# ℹ 330 more rows
…
Mngrs = tbl(con, "Managers") %>%
  select(playerID, G, W, L) %>%
  group_by(playerID) %>%
  summarize(G_managed = sum(G, na.rm = TRUE),
      Total_W = sum(W, na.rm = TRUE),
      Total_L = sum(L, na.rm = TRUE)) %>%
  collect() %>%
  mutate(careerw_pct = Total_W/G_managed) %>%
  arrange(desc(careerw_pct))

Mngrs

# A tibble: 749 × 5
   playerID  G_managed Total_W Total_L careerw_pct
   <chr>         <int>   <int>   <int>       <dbl>
 1 bensove01         1       1       0           1
 2 burwebi01         1       1       0           1
 3 cohenan01         1       1       0           1
 4 ebeldi99          3       3       0           1
 5 falkbi01          1       1       0           1
 6 hardeme01         3       3       0           1
 7 simmote01         1       1       0           1
 8 steinte01         2       2       0           1
 9 sukefcl01         2       2       0           1
10 tamarjo01         1       1       0           1
# ℹ 739 more rows
…
